{"page":1,"total_results":56,"total_pages":3,"results":[{"vote_count":1,"id":565716,"video":false,"vote_average":0,"title":"American Factory","popularity":2.505,"poster_path":"\/93oIf1SqT2uyKtSK6XN5gPCuepx.jpg","original_language":"en","original_title":"American Factory","genre_ids":[99],"backdrop_path":"\/vzmUkbi07g2dKVL6YCr8FX3LFgn.jpg","adult":false,"overview":"In post-industrial Ohio, a Chinese billionaire opens a new factory in the husk of an abandoned General Motors plant, hiring two thousand blue-collar Americans. Early days of hope and optimism give way to setbacks as high-tech China clashes with working-class America.","release_date":"2019-08-21"},{"vote_count":1,"id":565276,"video":false,"vote_average":0,"title":"Love, Antosha","popularity":4.594,"poster_path":"\/AntNP1sX7qKBT7hSYM4248RKMaL.jpg","original_language":"en","original_title":"Love, Antosha","genre_ids":[99],"backdrop_path":"\/271s2hYoC5gqkR3E2f9BTYz8Bjv.jpg","adult":false,"overview":"From a prolific career in film and television, Anton Yelchin left an indelible legacy as an actor. Through his journals and other writings, his photography, the original music he wrote, and interviews with his family, friends, and colleagues, this film looks not just at Anton's impressive career, but at a broader portrait of the man.","release_date":"2019-08-02"},{"vote_count":1,"id":564074,"video":false,"vote_average":0,"title":"Killer Vacation","popularity":1.481,"poster_path":"\/eesYwDYctcYvEZu6avsIMReruw0.jpg","original_language":"en","original_title":"Killer Vacation","genre_ids":[53,10770],"backdrop_path":"\/cyfhfaX4bChTlZeleOkKT8XQPDd.jpg","adult":false,"overview":"Successful businessman Jake takes his pregnant girlfriend Lindsey on a babymoon trip to an upscale desert resort. When they get there, Lindsey discovers thatJake’s meddlesome soon to be ex-wife, Gwen is there too. In a dream vacation gone wrong, it becomes apparent that someone is determined that Lindsey will never use her return ticket.","release_date":"2019-08-20"},{"vote_count":1,"id":554822,"video":false,"vote_average":0,"title":"Reza","popularity":1.034,"poster_path":"\/9ZI4P6yKlz9mLKNNb7B7nxZ5DpZ.jpg","original_language":"fa","original_title":"Reza","genre_ids":[18,10749,35],"backdrop_path":null,"adult":false,"overview":"Reza is a divorced author who is trying to adopt to his new life after divorce while he finds a new romance.","release_date":"2019-08-21"},{"vote_count":1,"id":551679,"video":false,"vote_average":0,"title":"Red Flowers and Green Leaves","popularity":3.283,"poster_path":"\/cafkXOJcddF24OjPGkPZjJu4nPL.jpg","original_language":"zh","original_title":"红花绿叶","genre_ids":[],"backdrop_path":null,"adult":false,"overview":"In a Hui Muslim village in Northwest China, a young couple begin their arranged marriage without knowing each other’s secrets. Confronted with tasks of mundane life, will they learn forgiveness and nourish true love?","release_date":"2019-08-05"},{"vote_count":1,"id":542303,"video":false,"vote_average":0,"title":"Falling Up","popularity":7.379,"poster_path":"\/roUR3DJFMjFFkk0bYrQnbAVL8Gc.jpg","original_language":"en","original_title":"Falling Up","genre_ids":[18],"backdrop_path":null,"adult":false,"overview":"When a relationship collapses and the mother is trapped with the child, love and anguish are portrayed in an almost raw documentary way where all the emotional and telling details are present.","release_date":"2019-08-10"},{"vote_count":1,"id":527659,"video":false,"vote_average":0,"title":"One Last Night","popularity":1.4,"poster_path":"\/6tIMfVIhOymZmY66rOcznmREl6S.jpg","original_language":"en","original_title":"One Last Night","genre_ids":[35,10749],"backdrop_path":"\/tvrkc8PBHcMprzY6zyY65nV1SYR.jpg","adult":false,"overview":"A man and a woman start to fall for each other after they get locked inside a movie theater on their first date.","release_date":"2019-08-16"},{"vote_count":1,"id":520364,"video":false,"vote_average":0,"title":"Blue Note Records: Beyond the Notes","popularity":15.136,"poster_path":"\/t2YcrYYhY46izGcLzPJo9Goq290.jpg","original_language":"en","original_title":"Blue Note Records: Beyond the Notes","genre_ids":[99],"backdrop_path":"\/s3smQxusMEOrpUfySagkSihG8Rm.jpg","adult":false,"overview":"The film explores the vision behind the iconic American jazz record label. Since 1939, Blue Note artists have been encouraged to push creative boundaries in search of uncompromising expressions. Through current recording sessions, rare archive and conversations with iconic Blue Note artists, the film reveals an intimate perspective of a legacy that continues to be vital in today’s political climate.","release_date":"2019-08-15"},{"vote_count":1,"id":515741,"video":false,"vote_average":0,"title":"Angel of Mine","popularity":11.9,"poster_path":"\/bmQP5BjF5xwEGtJcCxY3MZpjI6T.jpg","original_language":"en","original_title":"Angel of Mine","genre_ids":[18,53],"backdrop_path":"\/bC85fuvogSwbydvZfQYC0SL4mkL.jpg","adult":false,"overview":"A woman grieving over the death of her daughter loses grip of reality when she begins to think her girl may still be alive.","release_date":"2019-08-15"},{"vote_count":1,"id":508664,"video":false,"vote_average":0,"title":"Danger Close: The Battle of Long Tan","popularity":15.381,"poster_path":"\/aB1rCWGMsM2mm1kBDleaPkqUCFo.jpg","original_language":"en","original_title":"Danger Close: The Battle of Long Tan","genre_ids":[10752,28,18],"backdrop_path":null,"adult":false,"overview":"For three and a half hours, in the pouring rain, amid the mud and shattered trees of a rubber plantation called Long Tan, Major Harry Smith and his dispersed company of 108 young and mostly inexperienced Australian and New Zealand soldiers are fighting for their lives, holding off an overwhelming enemy force of 2,500 battle hardened Viet Cong and North Vietnamese soldiers. With their ammunition running out, their casualties mounting and the enemy massing for a final assault, each man begins to search for the strength to triumph over an uncertain future with honour, decency and courage.","release_date":"2019-08-08"},{"vote_count":1,"id":496029,"video":false,"vote_average":0,"title":"Kolaiyuthir Kaalam","popularity":8.552,"poster_path":"\/1TShKeGprzxHnBMtCpEKvq2z9KS.jpg","original_language":"ta","original_title":"கொலையுதிர் காலம்","genre_ids":[80,53,27],"backdrop_path":"\/s8O4Ko4OG4Tj2eGufGzn1WlGhtv.jpg","adult":false,"overview":"The heiress of a multi-millionaire, a hearing and speech impaired young woman, has to fend off a slasher all alone in her palatial estate.","release_date":"2019-08-08"},{"vote_count":1,"id":485882,"video":false,"vote_average":0,"title":"Cleo","popularity":2.532,"poster_path":"\/d4vdVvcvFXrUnB4QN7bhP2Oq0xl.jpg","original_language":"de","original_title":"Cleo","genre_ids":[35],"backdrop_path":"\/K570m8OtVvxL2CCJ2gUR22qeFs.jpg","adult":false,"overview":"Can Cleo turn back time? It seems that misfortune has been haunting her loved ones since she was born. A legendary treasure sounds like the solution to her problems, but Cleo will have to let go of the past.","release_date":"2019-07-25"},{"vote_count":1,"id":462924,"video":false,"vote_average":0,"title":"Spice It Up","popularity":3.842,"poster_path":"\/fu68U6ALwPjEgXDtQklKA1eoFvl.jpg","original_language":"en","original_title":"Spice It Up","genre_ids":[18,35],"backdrop_path":"\/sIdpo9jRRQOLiEM2JHUxRVQyz08.jpg","adult":false,"overview":"A film student struggles to complete her thesis project.","release_date":"2019-08-15"},{"vote_count":1,"id":428045,"video":false,"vote_average":0,"title":"The Mystery of the Dragon’s Seal","popularity":14.999,"poster_path":"\/vS6TCG4HiUSCyX30f5wDGQDt1k3.jpg","original_language":"ru","original_title":"Тайна Печати дракона","genre_ids":[12,14],"backdrop_path":"\/6z2RYYKl2AAfVkOse7Uxh8TXHJa.jpg","adult":false,"overview":"The Russian Czar Peter the Great commissions Jonathan Green, an English traveller, to map the Far East territories of the Russian Empire. Green sets off on yet another long journey, full of unbelievable adventures, which eventually leads him to China. On his way, the famous cartographer makes breath-taking discoveries, meets mysterious creatures, Chinese princesses, deadly masters of oriental martial arts, and even Lun Van, the King of Dragons, himself. What could be more perilous than looking into the eyes of Viy? Only meeting him again… What will prevail this time — the unflinching scepticism of the scientist or ancient black magic, which has already gained influence over the Far East Lands?","release_date":"2019-08-16"},{"vote_count":1,"id":414698,"video":false,"vote_average":0,"title":"Kolanji","popularity":1.603,"poster_path":"\/vJ4Mf1vSG13wouwwpu0klpHnOqp.jpg","original_language":"ta","original_title":"கொளஞ்சி","genre_ids":[10751,18],"backdrop_path":"\/hSPf46hpHmwlp5VTUKnE3Bx0Cz0.jpg","adult":false,"overview":"A young boy realises there is love and affection behind the strictness of his father.","release_date":"2019-07-26"},{"vote_count":0,"id":624831,"video":false,"vote_average":0,"title":"Memoria","popularity":0,"poster_path":"\/b4wriCoFawgYLGu72A3AbExGagO.jpg","original_language":"fr","original_title":"Memoria","genre_ids":[18],"backdrop_path":null,"adult":false,"overview":"","release_date":"2019-08-21"},{"vote_count":0,"id":624794,"video":false,"vote_average":0,"title":"Posham Pa","popularity":0,"poster_path":"\/mhDq2ITBJlHwBGB7wXueexyQY9S.jpg","original_language":"en","original_title":"Posham Pa","genre_ids":[],"backdrop_path":null,"adult":false,"overview":"Based on true events, the story revolves around a psychologically disturbed mother who coerces her daughters into a life of crime. Their case becomes a national sensation in India, overnight, these women are monsters personified.","release_date":"2019-08-21"},{"vote_count":0,"id":624786,"video":false,"vote_average":0,"title":"Lazy Susan","popularity":0,"poster_path":"\/ajNbjUS1jOkq7rfO742aWqW2RYg.jpg","original_language":"en","original_title":"Lazy Susan","genre_ids":[35],"backdrop_path":null,"adult":false,"overview":"An irreverent and comedic alt-history of the Lazy Susan (that spinning thing on the table at Chinese restaurants), and how one lazy, lazy woman changed the restaurant industry forever.  Susan's family restaurant is in trouble: a competing restaurant, Soup Station, moves in next door and, powered by its ingenious innovation (self-serve soup!) business is slow. How can their traditional Chinese restaurant compete? From this humble beginning, the legend of Susan is born.","release_date":"2019-08-13"},{"vote_count":0,"id":624725,"video":false,"vote_average":0,"title":"Tatort: Nemesis","popularity":0,"poster_path":"\/rJZGs4Vg1tHZJXjRRWYGs7DbfO8.jpg","original_language":"en","original_title":"Tatort: Nemesis","genre_ids":[80],"backdrop_path":null,"adult":false,"overview":"Leonie Winkler and Karin Gorniak try together to clarify the murder of the restaurant owner Benda.","release_date":"2019-08-18"},{"vote_count":0,"id":624680,"video":false,"vote_average":0,"title":"Krungkluea","popularity":0,"poster_path":"\/mQH6x4xyRTi1aXUBGJ5ckufi6f2.jpg","original_language":"th","original_title":"นิราศกรุงเกลือ","genre_ids":[9648,18],"backdrop_path":null,"adult":false,"overview":"Sathaporn, a liturature teacher, is joined by the bond and needs to accept the truth that Sirinarth, his pregnant wife, cannot have sex as much as he desires. What will happen if he decides to leave his lover behind, escape his old life and accidentally find the path to Krungkluea, a heaven in the liturature, which becomes realistic during his journey.","release_date":"2019-08-02"}]}