{"page":3,"total_results":56,"total_pages":3,"results":[{"vote_count":0,"id":506511,"video":false,"vote_average":0,"title":"Cold War III","popularity":4.041,"poster_path":null,"original_language":"cn","original_title":"寒戰 III","genre_ids":[28,80],"backdrop_path":null,"adult":false,"overview":"The follow-up to the movies \"Cold War\" (2012) - and \"Cold War II\" (2016)","release_date":"2019-08-01"},{"vote_count":0,"id":503917,"video":false,"vote_average":0,"title":"Enter The Fat Dragon","popularity":5.634,"poster_path":"\/wxWLj73hr9LCluXgdV7o8zUOiDc.jpg","original_language":"cn","original_title":"肥龍過江","genre_ids":[28,35],"backdrop_path":"\/jUFb7QQaX4o9JU6ekqTmntUSrJ9.jpg","adult":false,"overview":"A Remake Of ENTER THE FAT DRAGON - Directed By KENJI TANIGAKI - Starring DONNIE YEN","release_date":"2019-08-01"},{"vote_count":0,"id":502883,"video":false,"vote_average":0,"title":"Dhrushti","popularity":2.522,"poster_path":"\/1y3iVnvrPA2Nm8mOZLv57u389rw.jpg","original_language":"te","original_title":"దృష్టి","genre_ids":[10749,80,53],"backdrop_path":"\/vXp0NFvM8s84VdbI3aRfLajBJVe.jpg","adult":false,"overview":"A photographer's life, who is  temporarily wheelchair driven, goes into deep trouble, once he  witnesses a murder through his camera.","release_date":"2019-07-25"},{"vote_count":0,"id":486910,"video":false,"vote_average":0,"title":"The Sardonic Smile","popularity":1.264,"poster_path":"\/de94ipzvoGvBQSWYhjNJ6eClBpr.jpg","original_language":"en","original_title":"The Sardonic Smile","genre_ids":[27],"backdrop_path":"\/g0ZEQ3lqNvybfh8GRUE3NMoInBA.jpg","adult":false,"overview":"Following the mysterious death of a fellow hiker, four friends hauled up in a remote cabin begin to recall their strange encounters with a smiling man whilst out on the trails.","release_date":"2019-07-22"},{"vote_count":0,"id":478662,"video":false,"vote_average":0,"title":"A Última Chance","popularity":1.875,"poster_path":"\/21ir7ZbR1IE2tlKO7jQSmba5LcA.jpg","original_language":"pt","original_title":"A Última Chance","genre_ids":[18],"backdrop_path":null,"adult":false,"overview":"Based on the life of the inmate and Brazilian muay thai champion Fabio Leão. Born in Vila Kennedy, a suburb in Rio de Janeiro, Fabio was involved in drug trafficking and banditry since the age of 14. In prison, his redeeming passion as a teenager for the ring led him to teach sports to fellow inmates. Everything blends in with his love story for Luciana, a lifelong partner.","release_date":"2019-08-01"},{"vote_count":0,"id":471248,"video":false,"vote_average":0,"title":"Suburban Cowboy","popularity":2.99,"poster_path":"\/mzAzuvnFq5lqDSG3I3D3IRpFeqx.jpg","original_language":"en","original_title":"Suburban Cowboy","genre_ids":[53,80],"backdrop_path":null,"adult":false,"overview":"Suburban Cowboy follows a drug dealer on Long Island who finds himself over his head when one of his soldiers robs a connection to ruthless Serbian gangsters. When the debt falls on his shoulders he is forced to take drastic measures.","release_date":"2019-08-05"},{"vote_count":0,"id":467076,"video":false,"vote_average":0,"title":"Rapid Eye Movement","popularity":5.701,"poster_path":"\/nYyjmJtYcXAEhuQIfX1OxsM5ssp.jpg","original_language":"en","original_title":"Rapid Eye Movement","genre_ids":[53],"backdrop_path":"\/oqRVtxmHqkNAlO9PlkWvzsfoPly.jpg","adult":false,"overview":"A publicity seeking radio DJ is driven to the edge of insanity when he attempts to break the 11 day world record for staying awake-under the threat of a deranged caller who will kill him if he falls asleep.","release_date":"2019-08-09"},{"vote_count":0,"id":464907,"video":false,"vote_average":0,"title":"Ryeohaeng","popularity":1.96,"poster_path":"\/9jyK73gEyIWWETpeAoupsJo7tsC.jpg","original_language":"ko","original_title":"려행","genre_ids":[99],"backdrop_path":"\/8tXVMeBWTNdx9CmrkEfHJA22DsX.jpg","adult":false,"overview":"A group of women climbs a summer mountain situated in South Korea. They are refugees who have settled into South Korean society after fleeing from North Korea. For them, climbing the mountains has been an unavoidable journey for survival - a matter of life and death.","release_date":"2019-08-08"},{"vote_count":0,"id":460290,"video":false,"vote_average":0,"title":"HAGER","popularity":10.951,"poster_path":"\/aDHhjBw06srB3qkCvu0pACOHGIX.jpg","original_language":"en","original_title":"HAGER","genre_ids":[27,9648,18],"backdrop_path":null,"adult":false,"overview":"After his colleague Schweitzer goes missing during a drug raid, undercover cop Till Hager is tasked with tracking down a mysterious new drug called \"Abaddon\" - a substance which supposedly drags it's users down the deepest depths of hell.","release_date":"2019-08-15"},{"vote_count":0,"id":458028,"video":false,"vote_average":0,"title":"Through Black Glass","popularity":2.25,"poster_path":"\/8fkOkh0p5Nbg5RJsScI70M0zWun.jpg","original_language":"ru","original_title":"Сквозь черное стекло","genre_ids":[18],"backdrop_path":"\/pL0tZNqOmRUefVe3xdab9x8FG8C.jpg","adult":false,"overview":"The story of a blind girl whose fate presents a unique chance. A wealthy man is ready to give her sight if she blindly becomes his wife. This gift reveals to the heroine the cruel truth of life ...","release_date":"2019-08-03"},{"vote_count":0,"id":454687,"video":false,"vote_average":0,"title":"Benjamin Blümchen","popularity":4.913,"poster_path":"\/t1EjO3DnGWjOyheuNrJUqeWvtJd.jpg","original_language":"de","original_title":"Benjamin Blümchen","genre_ids":[10751],"backdrop_path":null,"adult":false,"overview":"","release_date":"2019-08-01"},{"vote_count":0,"id":450189,"video":false,"vote_average":0,"title":"Filmfarsi","popularity":1.637,"poster_path":null,"original_language":"fa","original_title":"Filmfarsi","genre_ids":[99],"backdrop_path":null,"adult":false,"overview":"A found-footage essay, Filmfarsi salvages low budget thrillers and melodramas suppressed following the 1979 Islamic revolution.","release_date":"2019-07-26"},{"vote_count":0,"id":419423,"video":false,"vote_average":0,"title":"Vom Traum zum Terror - München '72","popularity":1.057,"poster_path":null,"original_language":"de","original_title":"Vom Traum zum Terror - München '72","genre_ids":[18],"backdrop_path":null,"adult":false,"overview":"","release_date":"2019-07-22"},{"vote_count":0,"id":387730,"video":false,"vote_average":0,"title":"Meat Stew, Original Recipe","popularity":3.14,"poster_path":"\/e9i63fnd2EgOqTVAk6g05EMCGb1.jpg","original_language":"es","original_title":"Mole de olla, receta original","genre_ids":[35],"backdrop_path":"\/3b0hhm9iKbeGW3eO0ujlesPMBW2.jpg","adult":false,"overview":"A dysfunctional family reunites after the grandmother's death, who was a famous cooker of the traditional mexican dish: mole de olla.","release_date":"2019-08-02"},{"vote_count":0,"id":377728,"video":false,"vote_average":0,"title":"Axel the Hero","popularity":1.4,"poster_path":"\/fSLWckOErID1QOEltEB3dytdjPk.jpg","original_language":"de","original_title":"Axel der Held","genre_ids":[35,18],"backdrop_path":null,"adult":false,"overview":"Axel lives in a poor village where people work days at the chicken farm and gamble their last pennies at night. It's made Manne, the farm and casino owner, a very powerful man. Axel's debts are so great he has to do whatever Manne says. So he works in Manne's villa but can at least see his childhood love Jenny, who is now Manne's girlfriend. Axel seeks refuge in his imagination. He has rebuilt the entire village as a model in his cottage. Here, he is king, his word is law. Here, he saves Jenny from Manne and sends him running. One day Axel finds a friend, his neighbor Heiner, a strange guy who constantly quotes Karl May and talks happily with his chicken. Only by joining forces will they bring Manne's empire crashing down.","release_date":"2019-08-15"},{"vote_count":0,"id":319832,"video":false,"vote_average":0,"title":"Guna 369","popularity":2.135,"poster_path":"\/wp3PlWSfTzHSMgi9OSEUEirjgEp.jpg","original_language":"te","original_title":"గుణ 369","genre_ids":[10749,28],"backdrop_path":"\/cqencz3CQlk6oebyzjCOPmySlA5.jpg","adult":false,"overview":"Guna is a happy-go-lucky guy who believes the solution to solving issues is not through violence but through compromise.When he is framed for a crime he didn't commit by someone close to him, Guna is left with no choice and forced to the extremes to prove his innocence.","release_date":"2019-08-02"}]}